3.259651763891458511e+06
1.033913095609188080e+06
2.834186083452701569e+06
1.318946393795013428e+05
5.776100733962059021e+05
2.791069293429851532e+06
1.932342415975332260e+06
2.355382412214159966e+06
1.651604601016521454e+06
2.505359809001922607e+06
5.789522112026214600e+05
3.426212799801349640e+06
1.364078325862169266e+06
1.497951785398483276e+06
-1.798368967971324921e+06
8.934080762634277344e+05
1.082423853507518768e+06
-5.035502993805408478e+05
-7.575690042736530304e+05
-3.995380510108470917e+05
1.418263433274269104e+06
7.462751503098487854e+06
-9.724242476053237915e+05
-1.549680916627407074e+06
-2.634619491920471191e+06
-1.974137173817157745e+06
3.870551234854221344e+06
-6.774654918527603149e+04
-5.139517763806343079e+06
3.530335685868799686e+06
-8.259285431705713272e+06
5.323331367177963257e+05
-8.362835169490575790e+05
-2.058520905248641968e+06
-2.728520518182277679e+06
1.800864811214923859e+06
1.618495591980576515e+06
5.119699562438488007e+06
-4.805710171388864517e+06
-8.949307001542568207e+06
2.860460581929683685e+05
2.292287577624320984e+05
9.731544117252826691e+05
-2.127412925183534622e+06
-8.048696938283443451e+05
2.370063426377296448e+06
3.223820615038394928e+06
2.631433032804965973e+06
7.642567344541549683e+05
1.937562564738750458e+06
-1.947015808628082275e+06
3.465405881360769272e+06
4.064171200866699219e+06
2.054291499052762985e+06
-1.546922336533069611e+05
1.238231715224027634e+06
1.533525875225067139e+06
-1.361098246843576431e+06
1.861324312496900558e+06
-4.984302160312652588e+06
9.067514689642786980e+05
-4.686772905115604401e+06
1.314230118583917618e+06
3.274498714725971222e+05
1.204336859122753143e+06
1.006798187947273254e+06
-1.344548083909511566e+06
6.841166370202541351e+06
-2.528398032554149628e+06
6.169111826857328415e+05
-2.744006785979270935e+06
4.707618264909029007e+06
-1.422425910114884377e+06
-6.650243866948887706e+06
-3.585002306661128998e+06
-2.731006236984014511e+06
-5.878908239440917969e+06
4.406165922509670258e+06
-5.858051255619525909e+04
-1.406354085316658020e+06
4.806039070477485657e+05
-5.333840779980182648e+06
7.438939877882003784e+05
1.702168937271833420e+06
9.475843559465408325e+05
-6.007614687758684158e+05
-5.645894091010093689e+04
1.385665233205318451e+06
4.638360420432090759e+05
-2.506225368418216705e+06
-3.858108483814477921e+06
1.017578941284418106e+06
-2.961735979663610458e+06
9.239829176959991455e+05
3.449278459228038788e+06
4.008444318912029266e+05
-3.045786781201124191e+06
-2.321540366263270378e+06
-2.413898831644773483e+06
-1.799986455456972122e+06
